<svg xmlns="http://www.w3.org/2000/svg" width="20.672" height="20.672" viewBox="0 0 20.672 20.672">
  <g id="Icon_feather-eye-off" data-name="Icon feather-eye-off" transform="translate(-0.086 -0.086)">
    <path id="Path_1522" data-name="Path 1522" d="M15.24,17.306a8.168,8.168,0,0,1-4.818,1.671c-5.678,0-8.922-6.489-8.922-6.489A14.964,14.964,0,0,1,5.6,7.671M8.719,6.195A7.4,7.4,0,0,1,10.422,6c5.678,0,8.922,6.489,8.922,6.489a15,15,0,0,1-1.752,2.587m-5.45-.868A2.433,2.433,0,1,1,8.7,10.769" transform="translate(0 -2.067)" fill="none" stroke="#848885" stroke-linecap="round" stroke-linejoin="round" stroke-width="2"/>
    <path id="Path_1523" data-name="Path 1523" d="M1.5,1.5,19.344,19.344" fill="none" stroke="#848885" stroke-linecap="round" stroke-linejoin="round" stroke-width="2"/>
  </g>
</svg>
