<svg xmlns="http://www.w3.org/2000/svg" width="19.988" height="17.767" viewBox="0 0 19.988 17.767">
  <path id="Icon_awesome-map-marked-alt" data-name="Icon awesome-map-marked-alt" d="M9.994,0A4.372,4.372,0,0,0,5.621,4.372c0,1.952,2.858,5.51,3.952,6.8a.547.547,0,0,0,.84,0c1.095-1.292,3.952-4.85,3.952-6.8A4.372,4.372,0,0,0,9.994,0Zm0,5.83a1.457,1.457,0,1,1,1.457-1.457A1.457,1.457,0,0,1,9.994,5.83ZM.7,7.494A1.111,1.111,0,0,0,0,8.525v8.686a.555.555,0,0,0,.761.516l4.791-2.181V7.458a10.509,10.509,0,0,1-.737-1.611Zm9.3,4.987a1.658,1.658,0,0,1-1.267-.589c-.682-.805-1.408-1.722-2.064-2.662v6.316l6.663,2.221V9.23c-.657.94-1.382,1.857-2.064,2.662A1.659,1.659,0,0,1,9.994,12.481Zm9.232-6.888L14.435,7.773v9.994l4.854-1.941a1.11,1.11,0,0,0,.7-1.031V6.108A.555.555,0,0,0,19.226,5.592Z" fill="#848885"/>
</svg>
