<svg xmlns="http://www.w3.org/2000/svg" width="15" height="38" viewBox="0 0 15 38">
  <text id="Sergei_Filatov" transform="translate(0 31)" fill="#f4f5f4" font-size="35" font-family="BerlinSansFB-Reg, Berlin Sans FB"><tspan x="0" y="0">+</tspan></text>
</svg>
