<svg id="YouTube-4" xmlns="http://www.w3.org/2000/svg" width="19.48" height="13.615" viewBox="0 0 19.48 13.615">
  <path id="youtube-5" d="M9.749,13.615c-.061,0-6.13,0-7.629-.407a2.457,2.457,0,0,1-1.7-1.7A25.413,25.413,0,0,1,0,6.817,25.438,25.438,0,0,1,.423,2.1a2.455,2.455,0,0,1,1.7-1.7C3.573.011,9.086,0,9.71,0h.039c.061,0,6.128,0,7.629.407a2.458,2.458,0,0,1,1.7,1.7,25.474,25.474,0,0,1,.405,4.713,25.428,25.428,0,0,1-.407,4.7,2.457,2.457,0,0,1-1.7,1.7C15.86,13.61,9.81,13.615,9.749,13.615ZM7.8,3.889h0V9.732L12.885,6.81,7.8,3.889Z" transform="translate(0 0)" fill="#848885"/>
</svg>
