[{
    "pageLinks": ["Übersicht", "Weiteres ", "Sponsoren", "Neuigkeiten"],

    "ActionBtn": [
      { "icon": "users-Icon.svg", "title": "edit members" },
      { "icon": "eye-off-Icon.svg", "title": "hide" },
      { "icon": "mail-Icon.svg", "title": "view newsletter" }
    ],
    "mainBtn": "write newsletter"
  },
  {
    "sponCradData": [
        {
          "image": "image5.png",
          "icon": "DB_icon.svg",
          "title": "Deutsche Bahn",
          "description":
            " One of the most important tasks in management is the proper distribution of responsibilities."
        },
        {
          "icon": "DB_icon.svg",
          "title": "Deutsche Bahn",
          "description":
            " One of the most important tasks in management is the proper distribution of responsibilities."
        },
        {
          "title": "Deutsche Bahn",
          "description":
            " One of the most important tasks in management is the proper distribution of responsibilities."
        }
      ]
  },
  {
    "coverImage": "projectCardImage.png",
    "tag1": "Umwelt",
    "tag2": ["image2.png", "image3.png", "image4.png"],
    "title": "This is an awesome title for a project.",
    "date": "28.06.20",
    "dateIcon": "calendar.svg"
  }
]